<svg width="19" height="20" viewBox="0 0 19 20" fill="none" xmlns="http://www.w3.org/2000/svg">
<g clip-path="url(#clip0_6001_42078)">
<path d="M9.5 19.9063C11.3789 19.9063 13.2157 19.3491 14.7779 18.3052C16.3402 17.2613 17.5578 15.7776 18.2769 14.0417C18.9959 12.3058 19.184 10.3957 18.8175 8.5529C18.4509 6.71008 17.5461 5.01734 16.2175 3.68874C14.8889 2.36014 13.1962 1.45535 11.3534 1.08879C9.51054 0.722235 7.60041 0.910366 5.86451 1.6294C4.12861 2.34843 2.64491 3.56607 1.60104 5.12834C0.557165 6.6906 0 8.52733 0 10.4063C0.00272419 12.925 1.00449 15.3398 2.78549 17.1208C4.5665 18.9018 6.98128 19.9035 9.5 19.9063ZM9.5 4.86459C9.73487 4.86459 9.96446 4.93423 10.1597 5.06472C10.355 5.1952 10.5072 5.38066 10.5971 5.59765C10.687 5.81464 10.7105 6.0534 10.6647 6.28376C10.6189 6.51411 10.5058 6.7257 10.3397 6.89178C10.1736 7.05785 9.96202 7.17095 9.73167 7.21677C9.50132 7.26259 9.26255 7.23907 9.04556 7.14919C8.82858 7.05932 8.64311 6.90711 8.51263 6.71183C8.38215 6.51654 8.3125 6.28695 8.3125 6.05209C8.3125 5.73714 8.43761 5.4351 8.66031 5.2124C8.88301 4.9897 9.18506 4.86459 9.5 4.86459ZM8.70833 8.82292H9.5C9.91993 8.82292 10.3227 8.98974 10.6196 9.28667C10.9165 9.5836 11.0833 9.98633 11.0833 10.4063V15.1563C11.0833 15.3662 10.9999 15.5676 10.8515 15.716C10.703 15.8645 10.5016 15.9479 10.2917 15.9479C10.0817 15.9479 9.88034 15.8645 9.73187 15.716C9.58341 15.5676 9.5 15.3662 9.5 15.1563V10.4063H8.70833C8.49837 10.4063 8.29701 10.3228 8.14854 10.1744C8.00007 10.0259 7.91667 9.82455 7.91667 9.61459C7.91667 9.40462 8.00007 9.20326 8.14854 9.05479C8.29701 8.90633 8.49837 8.82292 8.70833 8.82292Z" fill="#808080"/>
</g>
<defs>
<clipPath id="clip0_6001_42078">
<rect width="19" height="19" fill="white" transform="translate(0 0.90625)"/>
</clipPath>
</defs>
</svg>
